…
``` r
#To test the full capabilities of the wrapper, we will provide it with a vector of two Pokemon names instead of ID numbers
my.data <- pokemon.batch.report(c("Bulbasaur","Mew"), gen1.correct = TRUE, unit = "imperial")

print(my.data)
```

    ## # A tibble: 151 × 13
    ##    name       id.number type1 type2  height weight    hp attack defense special.attack special.defense speed gen1.special
    ##    <chr>          <int> <chr> <chr>   <dbl>  <dbl> <int>  <int>   <int>          <int>           <int> <int>        <dbl>
    ##  1 Bulbasaur          1 grass poison     28     15    45     49      49             65              65    45           65
    ##  2 Ivysaur            2 grass poison     39     29    60     62      63             80              80    60           80
    ##  3 Venusaur           3 grass poison     79    220    80     82      83            100             100    80          100
    ##  4 Charmander         4 fire  <NA>       24     19    39     52      43             60              50    65           50
    ##  5 Charmeleon         5 fire  <NA>       43     42    58     64      58             80              65    80           65
    ##  6 Charizard          6 fire  flying     67    200    78     84      78            109              85   100           85
    ##  7 Squirtle           7 water <NA>       20     20    44     48      65             50              64    43           50
    ##  8 Wartortle          8 water <NA>       39     50    59     63      80             65              80    58           65
    ##  9 Blastoise          9 water <NA>       63    188    79     83     100             85             105    78           85
    ## 10 Caterpie          10 bug   <NA>       12      6    45     30      35             20              20    45           20
    ## # ℹ 141 more rows
…
